^D:\USERS\TSW\DESKTOP\6개월차\숙제\7일차 - 옵저버만든 후\FRAMEWORKTSW2015\ENGINE\SYSTEM\INCLUDE\DEBUG\GRAPHICDEV.OBJ|D:\USERS\TSW\DESKTOP\6개월차\숙제\7일차 - 옵저버만든 후\FRAMEWORKTSW2015\ENGINE\SYSTEM\INCLUDE\DEBUG\TIMEMGR.OBJ
D:\USERS\TSW\DESKTOP\6개월차\숙제\7일차 - 옵저버만든 후\FRAMEWORKTSW2015\ENGINE\SYSTEM\BIN\SYSTEM.ILK
D:\USERS\TSW\DESKTOP\6개월차\숙제\7일차 - 옵저버만든 후\FRAMEWORKTSW2015\ENGINE\SYSTEM\BIN\SYSTEM.DLL
D:\USERS\TSW\DESKTOP\6개월차\숙제\7일차 - 옵저버만든 후\FRAMEWORKTSW2015\ENGINE\SYSTEM\BIN\SYSTEM.PDB
