^D:\Users\TSW\Desktop\6개월차\숙제\7일차 - 옵저버만든 후\FrameWorkTSW2015\Engine\System\Include\System.vcxproj
D:\Users\TSW\Desktop\6개월차\숙제\7일차 - 옵저버만든 후\FrameWorkTSW2015\Engine\System\bin\System.lib
D:\Users\TSW\Desktop\6개월차\숙제\7일차 - 옵저버만든 후\FrameWorkTSW2015\Engine\System\bin\System.exp
